\relax 
\providecommand\hyper@newdestlabel[2]{}
\providecommand\HyperFirstAtBeginDocument{\AtBeginDocument}
\HyperFirstAtBeginDocument{\ifx\hyper@anchor\@undefined
\global\let\oldcontentsline\contentsline
\gdef\contentsline#1#2#3#4{\oldcontentsline{#1}{#2}{#3}}
\global\let\oldnewlabel\newlabel
\gdef\newlabel#1#2{\newlabelxx{#1}#2}
\gdef\newlabelxx#1#2#3#4#5#6{\oldnewlabel{#1}{{#2}{#3}}}
\AtEndDocument{\ifx\hyper@anchor\@undefined
\let\contentsline\oldcontentsline
\let\newlabel\oldnewlabel
\fi}
\fi}
\global\let\hyper@last\relax 
\gdef\HyperFirstAtBeginDocument#1{#1}
\providecommand\HyField@AuxAddToFields[1]{}
\providecommand\HyField@AuxAddToCoFields[2]{}
\@writefile{toc}{\contentsline {section}{\numberline {1}Ph\IeC {\`\acircumflex }n 1 - T\IeC {\h \ocircumflex }ng quan}{7}{section.1}}
\@writefile{toc}{\contentsline {subsection}{\numberline {1.1}Ph\IeC {\'a}t bi\IeC {\h \ecircumflex }u v\IeC {\'\acircumflex }n \IeC {\dj }\IeC {\`\ecircumflex }}{7}{subsection.1.1}}
\@writefile{toc}{\contentsline {subsection}{\numberline {1.2}M\IeC {\d u}c ti\IeC {\^e}u \IeC {\dj }\IeC {\`\ecircumflex } t\IeC {\`a}i nghi\IeC {\^e}n c\IeC {\'\uhorn }u}{7}{subsection.1.2}}
\@writefile{toc}{\contentsline {subsection}{\numberline {1.3}C\IeC {\'a}c nghi\IeC {\^e}n c\IeC {\'\uhorn }u li\IeC {\^e}n quan}{7}{subsection.1.3}}
\@writefile{toc}{\contentsline {section}{\numberline {2}Ph\IeC {\`\acircumflex }n 2 - C\IeC {\ohorn } s\IeC {\h \ohorn } l\IeC {\'y} thuy\IeC {\'\ecircumflex }t chung}{8}{section.2}}
\@writefile{toc}{\contentsline {subsection}{\numberline {2.1}L\IeC {\'y} thuy\IeC {\'\ecircumflex }t}{8}{subsection.2.1}}
\@writefile{toc}{\contentsline {subsection}{\numberline {2.2}Lu\IeC {\d \acircumflex }t ch\IeC {\ohorn }i}{8}{subsection.2.2}}
\@writefile{lot}{\contentsline {table}{\numberline {1}{\ignorespaces B\IeC {\h a}ng m\IeC {\^o} t\IeC {\h a} c\IeC {\'a}c ki\IeC {\h \ecircumflex }u b\IeC {\`a}i trong tr\IeC {\`o} ch\IeC {\ohorn }i ti\IeC {\'\ecircumflex }n l\IeC {\^e}n mi\IeC {\`\ecircumflex }n nam\relax }}{9}{table.caption.6}}
\providecommand*\caption@xref[2]{\@setref\relax\@undefined{#1}}
\newlabel{table:cackieubai}{{1}{9}{Bảng mô tả các kiểu bài trong trò chơi tiến lên miền nam\relax }{table.caption.6}{}}
\@writefile{toc}{\contentsline {subsection}{\numberline {2.3}Lu\IeC {\d \acircumflex }t t\IeC {\'\i }nh \IeC {\dj }i\IeC {\h \ecircumflex }m}{10}{subsection.2.3}}
\@writefile{toc}{\contentsline {section}{\numberline {3}Ph\IeC {\`\acircumflex }n 3 - M\IeC {\^o} h\IeC {\`\i }nh tr\IeC {\'\i } tu\IeC {\d \ecircumflex } nh\IeC {\^a}n t\IeC {\d a}o Heuristic}{10}{section.3}}
\@writefile{toc}{\contentsline {subsection}{\numberline {3.1}C\IeC {\ohorn } s\IeC {\h \ohorn } l\IeC {\'y} thuy\IeC {\'\ecircumflex }t}{10}{subsection.3.1}}
\@writefile{toc}{\contentsline {subsection}{\numberline {3.2}M\IeC {\^o} h\IeC {\`\i }nh}{11}{subsection.3.2}}
\@writefile{toc}{\contentsline {section}{\numberline {4}Ph\IeC {\`\acircumflex }n 4 - M\IeC {\^o} h\IeC {\`\i }nh m\IeC {\d a}ng MLP - Multi-layer Perceptron}{13}{section.4}}
\@writefile{toc}{\contentsline {subsection}{\numberline {4.1}C\IeC {\ohorn } s\IeC {\h \ohorn } l\IeC {\'y} thuy\IeC {\'\ecircumflex }t \ref  {itm:refmlp}\ref  {itm:reflythuyetmlp}}{13}{subsection.4.1}}
\@writefile{lof}{\contentsline {figure}{\numberline {1}{\ignorespaces Neural\relax }}{14}{figure.caption.7}}
\newlabel{fig:neural}{{1}{14}{Neural\relax }{figure.caption.7}{}}
\@writefile{lof}{\contentsline {figure}{\numberline {2}{\ignorespaces M\IeC {\^o} h\IeC {\`\i }nh m\IeC {\d a}ng MLP\relax }}{15}{figure.caption.8}}
\newlabel{fig:MLP_Model}{{2}{15}{Mô hình mạng MLP\relax }{figure.caption.8}{}}
\@writefile{lof}{\contentsline {figure}{\numberline {3}{\ignorespaces M\IeC {\d a}ng Neural Network\relax }}{16}{figure.caption.9}}
\newlabel{fig:mang1}{{3}{16}{Mạng Neural Network\relax }{figure.caption.9}{}}
\@writefile{lof}{\contentsline {figure}{\numberline {4}{\ignorespaces M\IeC {\^o} h\IeC {\`\i }nh Neural v\IeC {\'\ohorn }i Net v\IeC {\`a} Out\relax }}{16}{figure.caption.10}}
\newlabel{fig:neuralnetout}{{4}{16}{Mô hình Neural với Net và Out\relax }{figure.caption.10}{}}
\newlabel{eq:1}{{1}{16}{Cơ sở lý thuyết \ref {itm:refmlp}\ref {itm:reflythuyetmlp}}{Item.1}{}}
\newlabel{eq:2}{{2}{16}{Cơ sở lý thuyết \ref {itm:refmlp}\ref {itm:reflythuyetmlp}}{Item.2}{}}
\@writefile{lof}{\contentsline {figure}{\numberline {5}{\ignorespaces M\IeC {\d \ocircumflex }t s\IeC {\'\ocircumflex } h\IeC {\`a}m Activation\relax }}{17}{figure.caption.11}}
\newlabel{fig:activation_functions}{{5}{17}{Một số hàm Activation\relax }{figure.caption.11}{}}
\@writefile{lof}{\contentsline {figure}{\numberline {6}{\ignorespaces Bias\relax }}{17}{figure.caption.12}}
\newlabel{fig:bias}{{6}{17}{Bias\relax }{figure.caption.12}{}}
\@writefile{lof}{\contentsline {figure}{\numberline {7}{\ignorespaces Bi\IeC {\h \ecircumflex }u \IeC {\dj }\IeC {\`\ocircumflex } thay \IeC {\dj }\IeC {\h \ocircumflex }i Output b\IeC {\`\abreve }ng gi\IeC {\'a} tr\IeC {\d i} Bias\relax }}{18}{figure.caption.13}}
\newlabel{fig:bieudothaydoibias}{{7}{18}{Biểu đồ thay đổi Output bằng giá trị Bias\relax }{figure.caption.13}{}}
\@writefile{lof}{\contentsline {figure}{\numberline {8}{\ignorespaces G\IeC {\'\abreve }n Bias v\IeC {\`a} Neural\relax }}{18}{figure.caption.14}}
\newlabel{fig:biasganvaoneural}{{8}{18}{Gắn Bias và Neural\relax }{figure.caption.14}{}}
\@writefile{lof}{\contentsline {figure}{\numberline {9}{\ignorespaces Gi\IeC {\'a} tr\IeC {\d i} Output \IeC {\dj }\IeC {\uhorn }\IeC {\d \ohorn }c thay \IeC {\dj }\IeC {\h \ocircumflex }i b\IeC {\h \ohorn }i Bias\relax }}{19}{figure.caption.15}}
\newlabel{fig:hamthaydoiboibias}{{9}{19}{Giá trị Output được thay đổi bởi Bias\relax }{figure.caption.15}{}}
\@writefile{lof}{\contentsline {figure}{\numberline {10}{\ignorespaces V\IeC {\'\i } d\IeC {\d u} t\IeC {\'\i }nh to\IeC {\'a}n v\IeC {\`o}ng l\IeC {\d \abreve }p c\IeC {\h a}i ti\IeC {\'\ecircumflex }n\relax }}{20}{figure.caption.16}}
\newlabel{fig:vidutinhtoanvonglapcaitien}{{10}{20}{Ví dụ tính toán vòng lặp cải tiến\relax }{figure.caption.16}{}}
\newlabel{eq:activationfunction}{{3}{20}{Cơ sở lý thuyết \ref {itm:refmlp}\ref {itm:reflythuyetmlp}}{equation.4.3}{}}
\@writefile{lof}{\contentsline {figure}{\numberline {11}{\ignorespaces Gradient Descent\relax }}{21}{figure.caption.17}}
\newlabel{fig:gradient_descent}{{11}{21}{Gradient Descent\relax }{figure.caption.17}{}}
\newlabel{eq:update_weight}{{4}{22}{Cơ sở lý thuyết \ref {itm:refmlp}\ref {itm:reflythuyetmlp}}{equation.4.4}{}}
\@writefile{toc}{\contentsline {subsection}{\numberline {4.2}Hi\IeC {\d \ecircumflex }n th\IeC {\d \uhorn }c}{27}{subsection.4.2}}
\@writefile{lof}{\contentsline {figure}{\numberline {12}{\ignorespaces Ti\IeC {\'\ecircumflex }n tr\IeC {\`\i }nh ph\IeC {\^a}n t\IeC {\'\i }ch d\IeC {\~\uhorn } li\IeC {\d \ecircumflex }u t\IeC {\`\uhorn } d\IeC {\~\uhorn } li\IeC {\d \ecircumflex }u json sang d\IeC {\~\uhorn } li\IeC {\d \ecircumflex }u \IeC {\dj }\IeC {\`\acircumflex }u v\IeC {\`a}o cho vi\IeC {\d \ecircumflex }c hu\IeC {\'\acircumflex }n luy\IeC {\d \ecircumflex }n\relax }}{29}{figure.caption.18}}
\newlabel{fig:tientrinhphantichdulieu}{{12}{29}{Tiến trình phân tích dữ liệu từ dữ liệu json sang dữ liệu đầu vào cho việc huấn luyện\relax }{figure.caption.18}{}}
\@writefile{lot}{\contentsline {table}{\numberline {2}{\ignorespaces C\IeC {\'\acircumflex }u tr\IeC {\'u}c d\IeC {\~\uhorn } li\IeC {\d \ecircumflex }u Input\relax }}{30}{table.caption.19}}
\newlabel{table:cautrucdulieu}{{\caption@xref {table:cautrucdulieu}{ on input line 82}}{30}{}{table.caption.19}{}}
\@writefile{lot}{\contentsline {table}{\numberline {3}{\ignorespaces Bi\IeC {\'\ecircumflex }n \IeC {\dj }\IeC {\h \ocircumflex }i v\IeC {\`\ecircumflex } d\IeC {\d a}ng Int Type t\IeC {\`\uhorn } tr\IeC {\uhorn }\IeC {\`\ohorn }ng \textit  {historyHit} tr\IeC {\uhorn }\IeC {\'\ohorn }c khi \IeC {\dj }\IeC {\uhorn }a v\IeC {\`\ecircumflex } d\IeC {\d a}ng bits\relax }}{31}{table.caption.20}}
\newlabel{table:biendoivedanginttype}{{3}{31}{Biến đổi về dạng Int Type từ trường \textit {historyHit} trước khi đưa về dạng bits\relax }{table.caption.20}{}}
\@writefile{toc}{\contentsline {section}{\numberline {5}Ph\IeC {\`\acircumflex }n 5 - Ki\IeC {\h \ecircumflex }m ch\IeC {\'\uhorn }ng v\IeC {\`a} \IeC {\dj }\IeC {\'a}nh gi\IeC {\'a} gi\IeC {\h a}i thu\IeC {\d \acircumflex }t}{32}{section.5}}
\@writefile{toc}{\contentsline {subsection}{\numberline {5.1}M\IeC {\^o} h\IeC {\`\i }nh ki\IeC {\h \ecircumflex }m ch\IeC {\'\uhorn }ng}{32}{subsection.5.1}}
\@writefile{lof}{\contentsline {figure}{\numberline {13}{\ignorespaces M\IeC {\^o} h\IeC {\`\i }nh ki\IeC {\h \ecircumflex }m ch\IeC {\'\uhorn }ng AI\relax }}{32}{figure.caption.21}}
\newlabel{fig:mohinhkiemchungai}{{13}{32}{Mô hình kiểm chứng AI\relax }{figure.caption.21}{}}
\@writefile{toc}{\contentsline {subsection}{\numberline {5.2}Ki\IeC {\h \ecircumflex }m ch\IeC {\'\uhorn }ng gi\IeC {\h a}i thu\IeC {\d \acircumflex }t Heuristic}{33}{subsection.5.2}}
\newlabel{sec:kiemchucgiaithuatheuristic}{{5.2}{33}{Kiểm chứng giải thuật Heuristic}{subsection.5.2}{}}
\@writefile{lof}{\contentsline {figure}{\numberline {14}{\ignorespaces Ti\IeC {\'\ecircumflex }n tr\IeC {\`\i }nh t\IeC {\h y} l\IeC {\d \ecircumflex } chi\IeC {\'\ecircumflex }n th\IeC {\'\abreve }ng trong m\IeC {\^o}i tr\IeC {\uhorn }\IeC {\`\ohorn }ng m\IeC {\^o} ph\IeC {\h o}ng\relax }}{33}{figure.caption.22}}
\newlabel{fig:tientrinhtylechienthangtrongmoitruongmophong}{{14}{33}{Tiến trình tỷ lệ chiến thắng trong môi trường mô phỏng\relax }{figure.caption.22}{}}
\@writefile{lot}{\contentsline {table}{\numberline {4}{\ignorespaces T\IeC {\h y} l\IeC {\d \ecircumflex } chi\IeC {\'\ecircumflex }n th\IeC {\'\abreve }ng chi ti\IeC {\'\ecircumflex }t gi\IeC {\~\uhorn }a c\IeC {\'a}c AI Heuristic khi k\IeC {\'\ecircumflex }t th\IeC {\'u}c t\IeC {\h \ocircumflex }ng s\IeC {\'\ocircumflex } 10000 v\IeC {\'a}n thi \IeC {\dj }\IeC {\'\acircumflex }u\relax }}{33}{table.caption.23}}
\newlabel{table:tilechienthangcuaaiheuristicpsau10000vandau}{{4}{33}{Tỷ lệ chiến thắng chi tiết giữa các AI Heuristic khi kết thúc tổng số 10000 ván thi đấu\relax }{table.caption.23}{}}
\@writefile{lof}{\contentsline {figure}{\numberline {15}{\ignorespaces Ti\IeC {\'\ecircumflex }n tr\IeC {\`\i }nh \IeC {\dj }i\IeC {\h \ecircumflex }m s\IeC {\'\ocircumflex } trong m\IeC {\^o}i tr\IeC {\uhorn }\IeC {\`\ohorn }ng m\IeC {\^o} ph\IeC {\h o}ng\relax }}{34}{figure.caption.24}}
\newlabel{fig:tientrinhdiemsotrongmoitruongmophong}{{15}{34}{Tiến trình điểm số trong môi trường mô phỏng\relax }{figure.caption.24}{}}
\@writefile{lot}{\contentsline {table}{\numberline {5}{\ignorespaces \IeC {\DJ }i\IeC {\h \ecircumflex }m chi ti\IeC {\'\ecircumflex }t gi\IeC {\~\uhorn }a c\IeC {\'a}c AI Heuristic khi k\IeC {\'\ecircumflex }t th\IeC {\'u}c t\IeC {\h \ocircumflex }ng s\IeC {\'\ocircumflex } 10000 v\IeC {\'a}n thi \IeC {\dj }\IeC {\'\acircumflex }u\relax }}{34}{table.caption.25}}
\newlabel{table:diemcuaaiheuristicpsau10000vandau}{{5}{34}{Điểm chi tiết giữa các AI Heuristic khi kết thúc tổng số 10000 ván thi đấu\relax }{table.caption.25}{}}
\@writefile{lof}{\contentsline {figure}{\numberline {16}{\ignorespaces Ti\IeC {\'\ecircumflex }n tr\IeC {\`\i }nh t\IeC {\h y} l\IeC {\d \ecircumflex } chi\IeC {\'\ecircumflex }n th\IeC {\'\abreve }ng trong m\IeC {\^o}i tr\IeC {\uhorn }\IeC {\`\ohorn }ng th\IeC {\d \uhorn }c nghi\IeC {\d \ecircumflex }m\relax }}{35}{figure.caption.26}}
\newlabel{fig:tientrinhtylechienthangtrongmoitruongthunghiem}{{16}{35}{Tiến trình tỷ lệ chiến thắng trong môi trường thực nghiệm\relax }{figure.caption.26}{}}
\@writefile{lot}{\contentsline {table}{\numberline {6}{\ignorespaces Th\IeC {\^o}ng s\IeC {\'\ocircumflex } t\IeC {\h y} l\IeC {\d \ecircumflex } chi\IeC {\'\ecircumflex }n th\IeC {\'\abreve }ng c\IeC {\h u}a ng\IeC {\uhorn }\IeC {\`\ohorn }i ch\IeC {\ohorn }i (t\IeC {\'\i }nh theo trung b\IeC {\`\i }nh) v\IeC {\`a} 3 AI sau 50000 v\IeC {\'a}n \IeC {\dj }\IeC {\'\acircumflex }u\relax }}{35}{table.caption.27}}
\newlabel{table:thongsotylechienthangcuanguoichoiva3ai}{{6}{35}{Thông số tỷ lệ chiến thắng của người chơi (tính theo trung bình) và 3 AI sau 50000 ván đấu\relax }{table.caption.27}{}}
\@writefile{lof}{\contentsline {figure}{\numberline {17}{\ignorespaces Ti\IeC {\'\ecircumflex }n tr\IeC {\`\i }nh \IeC {\dj }i\IeC {\h \ecircumflex }m s\IeC {\'\ocircumflex } trong m\IeC {\^o}i tr\IeC {\uhorn }\IeC {\`\ohorn }ng th\IeC {\d \uhorn }c nghi\IeC {\d \ecircumflex }m\relax }}{36}{figure.caption.28}}
\newlabel{fig:tientrinhdiemsotrongmoitruongthucnghiem}{{17}{36}{Tiến trình điểm số trong môi trường thực nghiệm\relax }{figure.caption.28}{}}
\@writefile{lot}{\contentsline {table}{\numberline {7}{\ignorespaces B\IeC {\h a}ng \IeC {\dj }i\IeC {\h \ecircumflex }m t\IeC {\h \ocircumflex }ng k\IeC {\'\ecircumflex }t sau 50000 v\IeC {\'a}n b\IeC {\`a}i\relax }}{36}{table.caption.29}}
\newlabel{table:bangdiemtongketsau5000vanbai}{{7}{36}{Bảng điểm tổng kết sau 50000 ván bài\relax }{table.caption.29}{}}
\@writefile{toc}{\contentsline {subsection}{\numberline {5.3}Ki\IeC {\h \ecircumflex }m ch\IeC {\'\uhorn }ng gi\IeC {\h a}i thu\IeC {\d \acircumflex }t MLP}{36}{subsection.5.3}}
\@writefile{lot}{\contentsline {table}{\numberline {8}{\ignorespaces S\IeC {\'\ocircumflex } li\IeC {\d \ecircumflex }u thu th\IeC {\d \acircumflex }p \IeC {\dj }\IeC {\uhorn }\IeC {\d \ohorn }c sau khi hu\IeC {\'\acircumflex }n luy\IeC {\d \ecircumflex }n m\IeC {\d a}ng\relax }}{37}{table.caption.30}}
\newlabel{table:solieuthuthapduocsaukhihuanluyenmang}{{8}{37}{Số liệu thu thập được sau khi huấn luyện mạng\relax }{table.caption.30}{}}
\@writefile{lof}{\contentsline {figure}{\numberline {18}{\ignorespaces Bi\IeC {\h \ecircumflex }u \IeC {\dj }\IeC {\`\ocircumflex } k\IeC {\'\ecircumflex }t qu\IeC {\h a} hu\IeC {\'\acircumflex }n luy\IeC {\d \ecircumflex }n\relax }}{38}{figure.caption.31}}
\newlabel{fig:bieudohuanluyen}{{18}{38}{Biểu đồ kết quả huấn luyện\relax }{figure.caption.31}{}}
\@writefile{lof}{\contentsline {figure}{\numberline {19}{\ignorespaces K\IeC {\'\ecircumflex }t qu\IeC {\h a} ki\IeC {\h \ecircumflex }m ch\IeC {\'\uhorn }ng m\IeC {\^o} h\IeC {\`\i }nh 256 x 128\relax }}{38}{figure.caption.32}}
\newlabel{fig:kiemchugnmohinh256x128}{{19}{38}{Kết quả kiểm chứng mô hình 256 x 128\relax }{figure.caption.32}{}}
\@writefile{lof}{\contentsline {figure}{\numberline {20}{\ignorespaces Ti\IeC {\'\ecircumflex }n tr\IeC {\`\i }nh t\IeC {\h y} l\IeC {\d \ecircumflex } chi\IeC {\'\ecircumflex }n th\IeC {\'\abreve }ng c\IeC {\h u}a gi\IeC {\h a}i thu\IeC {\d \acircumflex }t MLP v\IeC {\'\ohorn }i Heuristic\relax }}{39}{figure.caption.33}}
\newlabel{fig:tientrinhtylechienthangcuagiaithuatmlpvoiheuristic}{{20}{39}{Tiến trình tỷ lệ chiến thắng của giải thuật MLP với Heuristic\relax }{figure.caption.33}{}}
\@writefile{lot}{\contentsline {table}{\numberline {9}{\ignorespaces T\IeC {\h y} l\IeC {\d \ecircumflex } chi\IeC {\'\ecircumflex }n th\IeC {\'\abreve }ng c\IeC {\h u}a gi\IeC {\h a}i thu\IeC {\d \acircumflex }t MLP sau 10000 v\IeC {\'a}n \IeC {\dj }\IeC {\'\acircumflex }u\relax }}{39}{table.caption.34}}
\newlabel{table:tilechienthangcuagiaithuatmlpsau10000vandau}{{9}{39}{Tỷ lệ chiến thắng của giải thuật MLP sau 10000 ván đấu\relax }{table.caption.34}{}}
\@writefile{lof}{\contentsline {figure}{\numberline {21}{\ignorespaces Ti\IeC {\'\ecircumflex }n tr\IeC {\`\i }nh \IeC {\dj }i\IeC {\h \ecircumflex }m s\IeC {\'\ocircumflex } c\IeC {\h u}a gi\IeC {\h a}i thu\IeC {\d \acircumflex }t MLP v\IeC {\'\ohorn }i Heuristic\relax }}{39}{figure.caption.35}}
\newlabel{fig:tientrinhdiemsocuagiaithuatmlpsovoigiaithuatheuristic}{{21}{39}{Tiến trình điểm số của giải thuật MLP với Heuristic\relax }{figure.caption.35}{}}
\@writefile{lot}{\contentsline {table}{\numberline {10}{\ignorespaces T\IeC {\h \ocircumflex }ng \IeC {\dj }i\IeC {\h \ecircumflex }m c\IeC {\h u}a gi\IeC {\h a}i thu\IeC {\d \acircumflex }t MLP sau 10000 v\IeC {\'a}n \IeC {\dj }\IeC {\'\acircumflex }u:\relax }}{40}{table.caption.36}}
\newlabel{table:tongdiemcuagiaithuatMLPsau1000vandau}{{10}{40}{Tổng điểm của giải thuật MLP sau 10000 ván đấu:\relax }{table.caption.36}{}}
\@writefile{toc}{\contentsline {subsection}{\numberline {5.4}\IeC {\DJ }\IeC {\'a}nh gi\IeC {\'a} gi\IeC {\h a}i thu\IeC {\d \acircumflex }t}{40}{subsection.5.4}}
\@writefile{toc}{\contentsline {section}{\numberline {6}Ph\IeC {\`\acircumflex }n 6 T\IeC {\h \ocircumflex }ng k\IeC {\'\ecircumflex }t}{40}{section.6}}
\@writefile{toc}{\contentsline {subsection}{\numberline {6.1}\IeC {\DJ }\IeC {\'a}nh gi\IeC {\'a} k\IeC {\'\ecircumflex }t qu\IeC {\h a}}{40}{subsection.6.1}}
\@writefile{toc}{\contentsline {subsection}{\numberline {6.2}\IeC {\DJ }\IeC {\'o}ng g\IeC {\'o}p c\IeC {\h u}a lu\IeC {\d \acircumflex }n v\IeC {\u a}n}{41}{subsection.6.2}}
\@writefile{toc}{\contentsline {subsection}{\numberline {6.3}H\IeC {\uhorn }\IeC {\'\ohorn }ng ph\IeC {\'a}t tri\IeC {\h \ecircumflex }n}{41}{subsection.6.3}}
\@writefile{toc}{\contentsline {section}{\numberline {7}T\IeC {\`a}i li\IeC {\d \ecircumflex }u tham kh\IeC {\h a}o}{43}{section.7}}
\newlabel{itm:reflibratus}{{$_[1]$}{43}{Tài liệu tham khảo}{section*.37}{}}
\newlabel{itm:refheuristic}{{$_[2]$}{43}{Tài liệu tham khảo}{section*.38}{}}
\newlabel{itm:refmlp}{{$_[3]$}{43}{Tài liệu tham khảo}{section*.39}{}}
\newlabel{itm:reflythuyetmlp}{{$_[4]$}{43}{Tài liệu tham khảo}{section*.40}{}}
\newlabel{itm:refgradientdescent}{{$_[5]$}{43}{Tài liệu tham khảo}{section*.41}{}}
\newlabel{itm:refmomentum1}{{$_[6]$}{43}{Tài liệu tham khảo}{section*.42}{}}
\newlabel{itm:refmomentum2}{{$_[7]$}{43}{Tài liệu tham khảo}{section*.43}{}}
\newlabel{itm:refbias}{{$_[8]$}{43}{Tài liệu tham khảo}{section*.44}{}}
\newlabel{itm:refactivationfunction}{{$_[9]$}{43}{Tài liệu tham khảo}{section*.45}{}}
\newlabel{itm:reftrituenhantao}{{$_[10]$}{43}{Tài liệu tham khảo}{section*.46}{}}
