\relax 
\providecommand\hyper@newdestlabel[2]{}
\providecommand\HyperFirstAtBeginDocument{\AtBeginDocument}
\HyperFirstAtBeginDocument{\ifx\hyper@anchor\@undefined
\global\let\oldcontentsline\contentsline
\gdef\contentsline#1#2#3#4{\oldcontentsline{#1}{#2}{#3}}
\global\let\oldnewlabel\newlabel
\gdef\newlabel#1#2{\newlabelxx{#1}#2}
\gdef\newlabelxx#1#2#3#4#5#6{\oldnewlabel{#1}{{#2}{#3}}}
\AtEndDocument{\ifx\hyper@anchor\@undefined
\let\contentsline\oldcontentsline
\let\newlabel\oldnewlabel
\fi}
\fi}
\global\let\hyper@last\relax 
\gdef\HyperFirstAtBeginDocument#1{#1}
\providecommand\HyField@AuxAddToFields[1]{}
\providecommand\HyField@AuxAddToCoFields[2]{}
\@writefile{toc}{\contentsline {section}{\numberline {1}Ph\IeC {\`\acircumflex }n 4 - M\IeC {\^o} h\IeC {\`\i }nh m\IeC {\d a}ng MLP - Multi-layer Perceptron}{1}{section.1}}
\@writefile{toc}{\contentsline {subsection}{\numberline {1.1}C\IeC {\ohorn } s\IeC {\h \ohorn } l\IeC {\'y} thuy\IeC {\'\ecircumflex }t \ref  {itm:refmlp}\ref  {itm:reflythuyetmlp}}{1}{subsection.1.1}}
\@writefile{lof}{\contentsline {figure}{\numberline {1}{\ignorespaces Neural\relax }}{1}{figure.caption.1}}
\providecommand*\caption@xref[2]{\@setref\relax\@undefined{#1}}
\newlabel{fig:neural}{{1}{1}{Neural\relax }{figure.caption.1}{}}
\@writefile{lof}{\contentsline {figure}{\numberline {2}{\ignorespaces M\IeC {\^o} h\IeC {\`\i }nh m\IeC {\d a}ng MLP\relax }}{2}{figure.caption.2}}
\newlabel{fig:MLP_Model}{{2}{2}{Mô hình mạng MLP\relax }{figure.caption.2}{}}
\@writefile{lof}{\contentsline {figure}{\numberline {3}{\ignorespaces M\IeC {\d a}ng Neural Network\relax }}{3}{figure.caption.3}}
\newlabel{fig:mang1}{{3}{3}{Mạng Neural Network\relax }{figure.caption.3}{}}
\@writefile{lof}{\contentsline {figure}{\numberline {4}{\ignorespaces M\IeC {\^o} h\IeC {\`\i }nh Neural v\IeC {\'\ohorn }i Net v\IeC {\`a} Out\relax }}{4}{figure.caption.4}}
\newlabel{fig:neuralnetout}{{4}{4}{Mô hình Neural với Net và Out\relax }{figure.caption.4}{}}
\newlabel{eq:1}{{1}{4}{Cơ sở lý thuyết \ref {itm:refmlp}\ref {itm:reflythuyetmlp}}{Item.1}{}}
\newlabel{eq:2}{{2}{4}{Cơ sở lý thuyết \ref {itm:refmlp}\ref {itm:reflythuyetmlp}}{Item.2}{}}
\@writefile{lof}{\contentsline {figure}{\numberline {5}{\ignorespaces M\IeC {\d \ocircumflex }t s\IeC {\'\ocircumflex } h\IeC {\`a}m Activation\relax }}{5}{figure.caption.5}}
\newlabel{fig:activation_functions}{{5}{5}{Một số hàm Activation\relax }{figure.caption.5}{}}
\@writefile{lof}{\contentsline {figure}{\numberline {6}{\ignorespaces Bias\relax }}{5}{figure.caption.6}}
\newlabel{fig:bias}{{6}{5}{Bias\relax }{figure.caption.6}{}}
\@writefile{lof}{\contentsline {figure}{\numberline {7}{\ignorespaces Bi\IeC {\h \ecircumflex }u \IeC {\dj }\IeC {\`\ocircumflex } thay \IeC {\dj }\IeC {\h \ocircumflex }i Output b\IeC {\`\abreve }ng gi\IeC {\'a} tr\IeC {\d i} Bias\relax }}{6}{figure.caption.7}}
\newlabel{fig:bieudothaydoibias}{{7}{6}{Biểu đồ thay đổi Output bằng giá trị Bias\relax }{figure.caption.7}{}}
\@writefile{lof}{\contentsline {figure}{\numberline {8}{\ignorespaces G\IeC {\'\abreve }n Bias v\IeC {\`a} Neural\relax }}{7}{figure.caption.8}}
\newlabel{fig:biasganvaoneural}{{8}{7}{Gắn Bias và Neural\relax }{figure.caption.8}{}}
\@writefile{lof}{\contentsline {figure}{\numberline {9}{\ignorespaces Gi\IeC {\'a} tr\IeC {\d i} Output \IeC {\dj }\IeC {\uhorn }\IeC {\d \ohorn }c thay \IeC {\dj }\IeC {\h \ocircumflex }i b\IeC {\h \ohorn }i Bias\relax }}{8}{figure.caption.9}}
\newlabel{fig:hamthaydoiboibias}{{9}{8}{Giá trị Output được thay đổi bởi Bias\relax }{figure.caption.9}{}}
\@writefile{lof}{\contentsline {figure}{\numberline {10}{\ignorespaces V\IeC {\'\i } d\IeC {\d u} t\IeC {\'\i }nh to\IeC {\'a}n v\IeC {\`o}ng l\IeC {\d \abreve }p c\IeC {\h a}i ti\IeC {\'\ecircumflex }n\relax }}{9}{figure.caption.10}}
\newlabel{fig:vidutinhtoanvonglapcaitien}{{10}{9}{Ví dụ tính toán vòng lặp cải tiến\relax }{figure.caption.10}{}}
\newlabel{eq:activationfunction}{{3}{9}{Cơ sở lý thuyết \ref {itm:refmlp}\ref {itm:reflythuyetmlp}}{equation.1.3}{}}
\@writefile{lof}{\contentsline {figure}{\numberline {11}{\ignorespaces Gradient Descent\relax }}{11}{figure.caption.11}}
\newlabel{fig:gradient_descent}{{11}{11}{Gradient Descent\relax }{figure.caption.11}{}}
\newlabel{eq:update_weight}{{4}{12}{Cơ sở lý thuyết \ref {itm:refmlp}\ref {itm:reflythuyetmlp}}{equation.1.4}{}}
\@writefile{toc}{\contentsline {subsection}{\numberline {1.2}Hi\IeC {\d \ecircumflex }n th\IeC {\d \uhorn }c}{17}{subsection.1.2}}
