\relax 
\providecommand\hyper@newdestlabel[2]{}
\providecommand\HyperFirstAtBeginDocument{\AtBeginDocument}
\HyperFirstAtBeginDocument{\ifx\hyper@anchor\@undefined
\global\let\oldcontentsline\contentsline
\gdef\contentsline#1#2#3#4{\oldcontentsline{#1}{#2}{#3}}
\global\let\oldnewlabel\newlabel
\gdef\newlabel#1#2{\newlabelxx{#1}#2}
\gdef\newlabelxx#1#2#3#4#5#6{\oldnewlabel{#1}{{#2}{#3}}}
\AtEndDocument{\ifx\hyper@anchor\@undefined
\let\contentsline\oldcontentsline
\let\newlabel\oldnewlabel
\fi}
\fi}
\global\let\hyper@last\relax 
\gdef\HyperFirstAtBeginDocument#1{#1}
\providecommand\HyField@AuxAddToFields[1]{}
\providecommand\HyField@AuxAddToCoFields[2]{}
\@writefile{toc}{\contentsline {section}{\numberline {1}Ph\IeC {\`\acircumflex }n 5 - Ki\IeC {\h \ecircumflex }m ch\IeC {\'\uhorn }ng v\IeC {\`a} \IeC {\dj }\IeC {\'a}nh gi\IeC {\'a} gi\IeC {\h a}i thu\IeC {\d \acircumflex }t}{1}{section.1}}
\@writefile{toc}{\contentsline {subsection}{\numberline {1.1}M\IeC {\^o} h\IeC {\`\i }nh ki\IeC {\h \ecircumflex }m ch\IeC {\'\uhorn }ng}{1}{subsection.1.1}}
\@writefile{lof}{\contentsline {figure}{\numberline {1}{\ignorespaces M\IeC {\^o} h\IeC {\`\i }nh ki\IeC {\h \ecircumflex }m ch\IeC {\'\uhorn }ng AI\relax }}{1}{figure.caption.1}}
\providecommand*\caption@xref[2]{\@setref\relax\@undefined{#1}}
\newlabel{fig:mohinhkiemchungai}{{1}{1}{Mô hình kiểm chứng AI\relax }{figure.caption.1}{}}
\@writefile{toc}{\contentsline {subsection}{\numberline {1.2}Ki\IeC {\h \ecircumflex }m ch\IeC {\'\uhorn }ng gi\IeC {\h a}i thu\IeC {\d \acircumflex }t Heuristic}{2}{subsection.1.2}}
\newlabel{sec:kiemchucgiaithuatheuristic}{{1.2}{2}{Kiểm chứng giải thuật Heuristic}{subsection.1.2}{}}
\@writefile{lof}{\contentsline {figure}{\numberline {2}{\ignorespaces Ti\IeC {\'\ecircumflex }n tr\IeC {\`\i }nh t\IeC {\h y} l\IeC {\d \ecircumflex } chi\IeC {\'\ecircumflex }n th\IeC {\'\abreve }ng trong m\IeC {\^o}i tr\IeC {\uhorn }\IeC {\`\ohorn }ng m\IeC {\^o} ph\IeC {\h o}ng\relax }}{2}{figure.caption.2}}
\newlabel{fig:tientrinhtylechienthangtrongmoitruongmophong}{{2}{2}{Tiến trình tỷ lệ chiến thắng trong môi trường mô phỏng\relax }{figure.caption.2}{}}
\@writefile{lot}{\contentsline {table}{\numberline {1}{\ignorespaces T\IeC {\h y} l\IeC {\d \ecircumflex } chi\IeC {\'\ecircumflex }n th\IeC {\'\abreve }ng chi ti\IeC {\'\ecircumflex }t gi\IeC {\~\uhorn }a c\IeC {\'a}c AI Heuristic khi k\IeC {\'\ecircumflex }t th\IeC {\'u}c t\IeC {\h \ocircumflex }ng s\IeC {\'\ocircumflex } 10000 v\IeC {\'a}n thi \IeC {\dj }\IeC {\'\acircumflex }u\relax }}{3}{table.caption.3}}
\newlabel{table:tilechienthangcuaaiheuristicpsau10000vandau}{{1}{3}{Tỷ lệ chiến thắng chi tiết giữa các AI Heuristic khi kết thúc tổng số 10000 ván thi đấu\relax }{table.caption.3}{}}
\@writefile{lof}{\contentsline {figure}{\numberline {3}{\ignorespaces Ti\IeC {\'\ecircumflex }n tr\IeC {\`\i }nh \IeC {\dj }i\IeC {\h \ecircumflex }m s\IeC {\'\ocircumflex } trong m\IeC {\^o}i tr\IeC {\uhorn }\IeC {\`\ohorn }ng m\IeC {\^o} ph\IeC {\h o}ng\relax }}{3}{figure.caption.4}}
\newlabel{fig:tientrinhdiemsotrongmoitruongmophong}{{3}{3}{Tiến trình điểm số trong môi trường mô phỏng\relax }{figure.caption.4}{}}
\@writefile{lot}{\contentsline {table}{\numberline {2}{\ignorespaces \IeC {\DJ }i\IeC {\h \ecircumflex }m chi ti\IeC {\'\ecircumflex }t gi\IeC {\~\uhorn }a c\IeC {\'a}c AI Heuristic khi k\IeC {\'\ecircumflex }t th\IeC {\'u}c t\IeC {\h \ocircumflex }ng s\IeC {\'\ocircumflex } 10000 v\IeC {\'a}n thi \IeC {\dj }\IeC {\'\acircumflex }u\relax }}{4}{table.caption.5}}
\newlabel{table:diemcuaaiheuristicpsau10000vandau}{{2}{4}{Điểm chi tiết giữa các AI Heuristic khi kết thúc tổng số 10000 ván thi đấu\relax }{table.caption.5}{}}
\@writefile{lof}{\contentsline {figure}{\numberline {4}{\ignorespaces Ti\IeC {\'\ecircumflex }n tr\IeC {\`\i }nh t\IeC {\h y} l\IeC {\d \ecircumflex } chi\IeC {\'\ecircumflex }n th\IeC {\'\abreve }ng trong m\IeC {\^o}i tr\IeC {\uhorn }\IeC {\`\ohorn }ng th\IeC {\d \uhorn }c nghi\IeC {\d \ecircumflex }m\relax }}{5}{figure.caption.6}}
\newlabel{fig:tientrinhtylechienthangtrongmoitruongthunghiem}{{4}{5}{Tiến trình tỷ lệ chiến thắng trong môi trường thực nghiệm\relax }{figure.caption.6}{}}
\@writefile{lot}{\contentsline {table}{\numberline {3}{\ignorespaces Th\IeC {\^o}ng s\IeC {\'\ocircumflex } t\IeC {\h y} l\IeC {\d \ecircumflex } chi\IeC {\'\ecircumflex }n th\IeC {\'\abreve }ng c\IeC {\h u}a ng\IeC {\uhorn }\IeC {\`\ohorn }i ch\IeC {\ohorn }i (t\IeC {\'\i }nh theo trung b\IeC {\`\i }nh) v\IeC {\`a} 3 AI sau 50000 v\IeC {\'a}n \IeC {\dj }\IeC {\'\acircumflex }u\relax }}{5}{table.caption.7}}
\newlabel{table:thongsotylechienthangcuanguoichoiva3ai}{{3}{5}{Thông số tỷ lệ chiến thắng của người chơi (tính theo trung bình) và 3 AI sau 50000 ván đấu\relax }{table.caption.7}{}}
\@writefile{lof}{\contentsline {figure}{\numberline {5}{\ignorespaces Ti\IeC {\'\ecircumflex }n tr\IeC {\`\i }nh \IeC {\dj }i\IeC {\h \ecircumflex }m s\IeC {\'\ocircumflex } trong m\IeC {\^o}i tr\IeC {\uhorn }\IeC {\`\ohorn }ng th\IeC {\d \uhorn }c nghi\IeC {\d \ecircumflex }m\relax }}{6}{figure.caption.8}}
\newlabel{fig:tientrinhdiemsotrongmoitruongthucnghiem}{{5}{6}{Tiến trình điểm số trong môi trường thực nghiệm\relax }{figure.caption.8}{}}
\@writefile{lot}{\contentsline {table}{\numberline {4}{\ignorespaces B\IeC {\h a}ng \IeC {\dj }i\IeC {\h \ecircumflex }m t\IeC {\h \ocircumflex }ng k\IeC {\'\ecircumflex }t sau 50000 v\IeC {\'a}n b\IeC {\`a}i\relax }}{6}{table.caption.9}}
\newlabel{table:bangdiemtongketsau5000vanbai}{{4}{6}{Bảng điểm tổng kết sau 50000 ván bài\relax }{table.caption.9}{}}
\@writefile{toc}{\contentsline {subsection}{\numberline {1.3}Ki\IeC {\h \ecircumflex }m ch\IeC {\'\uhorn }ng gi\IeC {\h a}i thu\IeC {\d \acircumflex }t MLP}{7}{subsection.1.3}}
\@writefile{lot}{\contentsline {table}{\numberline {5}{\ignorespaces S\IeC {\'\ocircumflex } li\IeC {\d \ecircumflex }u thu th\IeC {\d \acircumflex }p \IeC {\dj }\IeC {\uhorn }\IeC {\d \ohorn }c sau khi hu\IeC {\'\acircumflex }n luy\IeC {\d \ecircumflex }n m\IeC {\d a}ng\relax }}{8}{table.caption.10}}
\newlabel{table:solieuthuthapduocsaukhihuanluyenmang}{{5}{8}{Số liệu thu thập được sau khi huấn luyện mạng\relax }{table.caption.10}{}}
\@writefile{lof}{\contentsline {figure}{\numberline {6}{\ignorespaces Bi\IeC {\h \ecircumflex }u \IeC {\dj }\IeC {\`\ocircumflex } k\IeC {\'\ecircumflex }t qu\IeC {\h a} hu\IeC {\'\acircumflex }n luy\IeC {\d \ecircumflex }n\relax }}{9}{figure.caption.11}}
\newlabel{fig:bieudohuanluyen}{{6}{9}{Biểu đồ kết quả huấn luyện\relax }{figure.caption.11}{}}
\@writefile{lof}{\contentsline {figure}{\numberline {7}{\ignorespaces Ti\IeC {\'\ecircumflex }n tr\IeC {\`\i }nh t\IeC {\h y} l\IeC {\d \ecircumflex } chi\IeC {\'\ecircumflex }n th\IeC {\'\abreve }ng c\IeC {\h u}a gi\IeC {\h a}i thu\IeC {\d \acircumflex }t MLP v\IeC {\'\ohorn }i Heuristic\relax }}{10}{figure.caption.12}}
\newlabel{fig:tientrinhtylechienthangcuagiaithuatmlpvoiheuristic}{{7}{10}{Tiến trình tỷ lệ chiến thắng của giải thuật MLP với Heuristic\relax }{figure.caption.12}{}}
\@writefile{lot}{\contentsline {table}{\numberline {6}{\ignorespaces T\IeC {\h y} l\IeC {\d \ecircumflex } chi\IeC {\'\ecircumflex }n th\IeC {\'\abreve }ng c\IeC {\h u}a gi\IeC {\h a}i thu\IeC {\d \acircumflex }t MLP sau 10000 v\IeC {\'a}n \IeC {\dj }\IeC {\'\acircumflex }u\relax }}{10}{table.caption.13}}
\newlabel{table:tilechienthangcuagiaithuatmlpsau10000vandau}{{6}{10}{Tỷ lệ chiến thắng của giải thuật MLP sau 10000 ván đấu\relax }{table.caption.13}{}}
\@writefile{lof}{\contentsline {figure}{\numberline {8}{\ignorespaces Ti\IeC {\'\ecircumflex }n tr\IeC {\`\i }nh \IeC {\dj }i\IeC {\h \ecircumflex }m s\IeC {\'\ocircumflex } c\IeC {\h u}a gi\IeC {\h a}i thu\IeC {\d \acircumflex }t MLP v\IeC {\'\ohorn }i Heuristic\relax }}{11}{figure.caption.14}}
\newlabel{fig:tientrinhdiemsocuagiaithuatmlpsovoigiaithuatheuristic}{{8}{11}{Tiến trình điểm số của giải thuật MLP với Heuristic\relax }{figure.caption.14}{}}
\@writefile{lot}{\contentsline {table}{\numberline {7}{\ignorespaces T\IeC {\h \ocircumflex }ng \IeC {\dj }i\IeC {\h \ecircumflex }m c\IeC {\h u}a gi\IeC {\h a}i thu\IeC {\d \acircumflex }t MLP sau 10000 v\IeC {\'a}n \IeC {\dj }\IeC {\'\acircumflex }u:\relax }}{11}{table.caption.15}}
\newlabel{table:tongdiemcuagiaithuatMLPsau1000vandau}{{7}{11}{Tổng điểm của giải thuật MLP sau 10000 ván đấu:\relax }{table.caption.15}{}}
