\relax 
\providecommand\hyper@newdestlabel[2]{}
\providecommand\HyperFirstAtBeginDocument{\AtBeginDocument}
\HyperFirstAtBeginDocument{\ifx\hyper@anchor\@undefined
\global\let\oldcontentsline\contentsline
\gdef\contentsline#1#2#3#4{\oldcontentsline{#1}{#2}{#3}}
\global\let\oldnewlabel\newlabel
\gdef\newlabel#1#2{\newlabelxx{#1}#2}
\gdef\newlabelxx#1#2#3#4#5#6{\oldnewlabel{#1}{{#2}{#3}}}
\AtEndDocument{\ifx\hyper@anchor\@undefined
\let\contentsline\oldcontentsline
\let\newlabel\oldnewlabel
\fi}
\fi}
\global\let\hyper@last\relax 
\gdef\HyperFirstAtBeginDocument#1{#1}
\providecommand\HyField@AuxAddToFields[1]{}
\providecommand\HyField@AuxAddToCoFields[2]{}
\@writefile{toc}{\contentsline {section}{\numberline {1}Ph\IeC {\`\acircumflex }n 2 - C\IeC {\ohorn } s\IeC {\h \ohorn } l\IeC {\'y} thuy\IeC {\'\ecircumflex }t chung}{1}{section.1}}
\@writefile{toc}{\contentsline {subsection}{\numberline {1.1}L\IeC {\'y} thuy\IeC {\'\ecircumflex }t}{1}{subsection.1.1}}
\@writefile{toc}{\contentsline {subsection}{\numberline {1.2}Lu\IeC {\d \acircumflex }t ch\IeC {\ohorn }i}{1}{subsection.1.2}}
\@writefile{lot}{\contentsline {table}{\numberline {1}{\ignorespaces B\IeC {\h a}ng m\IeC {\^o} t\IeC {\h a} c\IeC {\'a}c ki\IeC {\h \ecircumflex }u b\IeC {\`a}i trong tr\IeC {\`o} ch\IeC {\ohorn }i ti\IeC {\'\ecircumflex }n l\IeC {\^e}n mi\IeC {\`\ecircumflex }n nam\relax }}{2}{table.caption.1}}
\providecommand*\caption@xref[2]{\@setref\relax\@undefined{#1}}
\newlabel{table:cackieubai}{{1}{2}{Bảng mô tả các kiểu bài trong trò chơi tiến lên miền nam\relax }{table.caption.1}{}}
\@writefile{toc}{\contentsline {subsection}{\numberline {1.3}Lu\IeC {\d \acircumflex }t t\IeC {\'\i }nh \IeC {\dj }i\IeC {\h \ecircumflex }m}{3}{subsection.1.3}}
