\relax 
\providecommand\hyper@newdestlabel[2]{}
\providecommand\HyperFirstAtBeginDocument{\AtBeginDocument}
\HyperFirstAtBeginDocument{\ifx\hyper@anchor\@undefined
\global\let\oldcontentsline\contentsline
\gdef\contentsline#1#2#3#4{\oldcontentsline{#1}{#2}{#3}}
\global\let\oldnewlabel\newlabel
\gdef\newlabel#1#2{\newlabelxx{#1}#2}
\gdef\newlabelxx#1#2#3#4#5#6{\oldnewlabel{#1}{{#2}{#3}}}
\AtEndDocument{\ifx\hyper@anchor\@undefined
\let\contentsline\oldcontentsline
\let\newlabel\oldnewlabel
\fi}
\fi}
\global\let\hyper@last\relax 
\gdef\HyperFirstAtBeginDocument#1{#1}
\providecommand\HyField@AuxAddToFields[1]{}
\providecommand\HyField@AuxAddToCoFields[2]{}
\@writefile{toc}{\contentsline {section}{\numberline {1}Ph\IeC {\`\acircumflex }n 1 - T\IeC {\h \ocircumflex }ng quan}{1}{section.1}}
\@writefile{toc}{\contentsline {subsection}{\numberline {1.1}Ph\IeC {\'a}t bi\IeC {\h \ecircumflex }u v\IeC {\'\acircumflex }n \IeC {\dj }\IeC {\`\ecircumflex }}{1}{subsection.1.1}}
\@writefile{toc}{\contentsline {subsection}{\numberline {1.2}M\IeC {\d u}c ti\IeC {\^e}u \IeC {\dj }\IeC {\`\ecircumflex } t\IeC {\`a}i nghi\IeC {\^e}n c\IeC {\'\uhorn }u}{1}{subsection.1.2}}
\@writefile{toc}{\contentsline {subsection}{\numberline {1.3}C\IeC {\'a}c nghi\IeC {\^e}n c\IeC {\'\uhorn }u li\IeC {\^e}n quan}{1}{subsection.1.3}}
