\BOOKMARK [1][-]{section.1}{Phn 4 - M\364 h\354nh mang MLP - Multi-layer Perceptron}{}% 1
\BOOKMARK [2][-]{subsection.1.1}{C s l\375 thuyt ????}{section.1}% 2
\BOOKMARK [2][-]{subsection.1.2}{Hin thc}{section.1}% 3
