\relax 
\providecommand\hyper@newdestlabel[2]{}
\providecommand\HyperFirstAtBeginDocument{\AtBeginDocument}
\HyperFirstAtBeginDocument{\ifx\hyper@anchor\@undefined
\global\let\oldcontentsline\contentsline
\gdef\contentsline#1#2#3#4{\oldcontentsline{#1}{#2}{#3}}
\global\let\oldnewlabel\newlabel
\gdef\newlabel#1#2{\newlabelxx{#1}#2}
\gdef\newlabelxx#1#2#3#4#5#6{\oldnewlabel{#1}{{#2}{#3}}}
\AtEndDocument{\ifx\hyper@anchor\@undefined
\let\contentsline\oldcontentsline
\let\newlabel\oldnewlabel
\fi}
\fi}
\global\let\hyper@last\relax 
\gdef\HyperFirstAtBeginDocument#1{#1}
\providecommand\HyField@AuxAddToFields[1]{}
\providecommand\HyField@AuxAddToCoFields[2]{}
\@writefile{toc}{\contentsline {section}{\numberline {1}Ph\IeC {\`\acircumflex }n 3 - M\IeC {\^o} h\IeC {\`\i }nh tr\IeC {\'\i } tu\IeC {\d \ecircumflex } nh\IeC {\^a}n t\IeC {\d a}o Heuristic}{1}{section.1}}
\@writefile{toc}{\contentsline {subsection}{\numberline {1.1}C\IeC {\ohorn } s\IeC {\h \ohorn } l\IeC {\'y} thuy\IeC {\'\ecircumflex }t}{1}{subsection.1.1}}
\@writefile{toc}{\contentsline {subsection}{\numberline {1.2}M\IeC {\^o} h\IeC {\`\i }nh}{1}{subsection.1.2}}
